1.569958616669428
1.052378045664697
1.769241648942944
4.178818698265055
-2.274141329698002
0.526085800040313
-0.856937726830921
-0.270556996806436
-0.868267146073558
-0.828759137064867
-0.601819824837819
-4.048939773360979
-0.351015153859811
-1.511684680895517
0.882742383715054
1.061101041424343
1.744026011544004
0.833724490421016
-0.034845815050438
0.690147236446725
-0.204881855220590
2.087240024698962
3.286763612543119
-0.508278079141934
0.843921199442354
0.030941008117061
0.650715899673444
0.528763655499489
4.474282651048492
3.128276674507184
-0.411947221288149
3.761146189617004
2.383621141383050
-0.635585987673908
3.461425448914075
-2.262289469052246
1.804689452437639
4.912958720908145
-1.283137703034403
-0.167354697670666
-0.981960954660178
1.955044413283931
-1.966215657973813
1.258114903819221
-1.546442801776995
1.455361655015768
1.421563054625409
2.089533183202761
1.745344108460910
-1.373629727451411
2.478465643886366
3.180094687000219
1.449704756180182
4.820196589147352
-0.857407840293751
4.710331787012660
1.597696904871131
-1.118203984513468
1.226103751788598
0.037878606931620
1.602568673252536
4.061725748917697
0.890363219674670
-3.348187443565210
2.443957809269900
0.430572228878984
1.748825446108915
1.170884364940838
2.595209184646115
2.734973064343623
0.588357651526770
1.184431520150929
1.225287688373087
1.048352781717519
2.831178689355477
2.206256211893253
-0.109366908584164
0.685590711862745
0.933632630501781
-0.346532497968074
2.295615039257416
-1.671653048989458
0.673749175984007
-1.052902206344845
0.920334193418047
0.240409919772713
-1.822760704513823
0.736778794483896
-0.691954320162805
0.795962437439855
2.079357530618673
2.498839127121181
0.445302670627706
0.596869696556699
0.974418913017056
0.653866649205583
3.258628494927647
0.356501003570607
3.675763459509164
0.005965875155107
-0.517185728972111
-2.762260058944749
1.300066438719331
-0.139657402805459
1.088619270912618
-1.669900377877463
3.157685562666878
1.604408816468017
0.668196617538083
-0.909225212990525
0.677664152489136
-0.521419281721654
2.327290058155565
-2.654802255004893
-0.340157599458176
2.581860283262177
3.916804015195314
0.036534715017472
0.618040902195215
0.137547085412637
-2.846006283181342
-1.791499272205433
-0.205287560012234
-1.421451597117681
-0.318947262115765
0.967532216769113
1.365355247329109
-3.004808814751809
-1.286792942152142
-0.908146657944062
2.336061981518136
0.373371982210860
-2.362216267658627
-1.538147160478732
-1.803728947099930
-1.120171594968210
1.550365328678326
0.005812131692078
-1.312704981234732
0.989645349192335
1.000069712770594
-5.022120971043929
-0.703551701378858
4.253983784562691
0.569231349984437
-1.839270542365785
-0.837390261905680
1.966821347326547
-0.851860116255812
1.077670481676311
-0.340211205228906
-0.099990513897749
-0.647171238924882
-0.725735664273014
-0.195011844147608
1.543880827866225
2.057902359987782
-1.383926788655045
-0.094859748045823
-0.704720996650139
-1.558750146375413
3.287095537028248
0.547445680083241
0.068642815124317
4.324725795811824
0.868209810426264
0.302305896642867
-0.047581919250685
-0.116269994973499
-1.717275095893100
0.949549718839796
4.160685130589713
-4.398432719372029
2.655165665602637
2.213553839907123
3.207598139778593
1.387125807607752
1.064814171858243
2.453585506762540
-0.896866501319094
-5.367383094441633
0.997137499464013
-0.228698051359411
3.129179158014857
-2.718268238765084
-1.600266583879679
0.758176593601159
1.449473864607982
2.507010570003964
1.787667129517395
2.689988638901177
1.001286914902096
0.856068066757104
2.539544005687097
0.326824895829810
-2.741124634030558
4.833835691674239
2.831951376650231
1.484960278389865
0.217712647690060
1.456742515325786
2.963527881836542
3.207086781031634
3.100314344686959
-0.966415173539451
2.170967247772654
-0.087596527869351
-0.403953040223182
-2.755445335983071
2.159439316309481
3.425948073521476
-3.494496205773059
-1.465431782857025
4.686029037289769
-0.112962072366023
3.335089760200588
-0.429276514658795
3.129891915029982
-0.419865839077940
1.835651201731792
-1.480354290753865
-1.571203355706271
2.372239161906898
0.271570993861284
0.908251555134802
1.649024493158329
4.386106470605138
-1.222179220821827
-2.406288998782375
-0.992083833495282
3.017256850165874
-1.860432110228644
0.498288682315398
2.157449963100254
4.770267195973686
0.860322095788830
-1.112049820235932
0.675401297122272
0.446879508030432
4.024060364081342
-3.171211590209079
2.818060768943963
2.726423351620182
1.998639711880321
0.445199835979175
1.780482627381430
-3.988039266275085
-1.710953021049780
1.803529430330479
2.213464767121066
-2.429485422958766
0.962224534191645
-1.713096225761903
-3.859203415477449
2.642894043528437
-1.487227523358510
0.906922087870186
-4.451267151173786
-0.574503216615342
3.376688931335017
-0.652283263134275
1.474814143920510
-2.316010134375353
0.911290419028982
-1.764428739613937
0.347536029243190
-1.383188272134186
-0.457159326559275
-0.021664215591459
-2.836759178461530
-1.021626897017698
-2.487400626821535
0.483420337460453
-1.246280374218379
-0.864680971288239
0.093737205766899
0.147804767621094
-0.659141348477288
-0.031514782426629
-3.073952464641101
2.554266480831162
1.850352652435837
3.366188613414429
-4.841796478552142
-1.143170432988856
-2.295262205980627
-3.177533066373596
1.225938907639141
-0.999930963250622
-5.771603853195505
-0.270528505345082
-3.753330683644712
1.376092525185358
-4.283931574019061
-1.050444658959407
-1.925171691399546
-2.092231127385025
-0.504653978733333
-3.552929691892433
-1.505560548591647
2.308894328282543
-0.245020665801280
-2.714230412113285
-2.347212500531192
0.392855422075864
-1.913891803807351
1.490955743517648
-0.039480105633440
-2.104391132205580
0.458055379256020
-4.459183205749069
1.329859579980018
-2.055073138069854
-0.635393273665371
-2.462060126964379
-0.730890134166767
2.284738592341814
-2.137821944187117
-0.716897526381807
-2.740676384407919
-1.470518211794724
-0.684192234453699
-0.878954004391152
1.419527020227409
1.585850092013226
0.915315485633522
-1.039356240522453
-1.209546370701850
2.063993328361163
-2.347434510271846
0.031187263762444
-1.611401350825775
1.364788457885013
0.325426291139657
-0.819942620362395
1.783443887670382
1.467121332421249
0.078983266850669
-4.685847972907532
-1.857438646067280
-2.647379342616376
-0.369819923598250
-1.662643370854973
-4.987360627300236
-0.876810054399473
-3.223220684256048
-0.686594296685768
0.256275604295276
3.399803369943960
-2.629009040455836
-0.219779494241827
2.854941652536439
-0.225550886670446
3.036359124342526
0.232986885243095
-1.743750538789978
-0.782425349278337
2.563703748396861
-0.515945956469623
3.332901488508235
-0.793014854525887
-0.249993773251648
0.799022516710676
2.225869107475281
2.838691630870327
-0.364053011609424
3.449900954647127
-0.416721539030325
2.867992154495514
-0.354215736654546
0.372846712968013
-3.737026677443947
1.025456806721770
0.052984972491598
1.911932709324905
3.246718634813171
1.336415880672980
-0.077433698422859
3.748206408588080
-2.456764849107691
-0.360475125307956
3.052750046800241
-0.743412820312058
2.458650905785881
-0.997185872689248
0.308286233477415
-0.507811809823792
-0.695777514646307
-0.186166015928751
2.233247327400737
-2.730588562074896
1.172361356801617
-2.141355471163705
0.091648186702284
0.504197439736320
3.102778354779579
-1.561111058220564
0.119710627573730
2.850437495121537
-1.785253356913256
-3.048357753364126
1.655827375868586
-0.379372681537913
3.878960300809404
-1.541628094482560
0.543827053993864
1.193638681235941
0.428640618093684
0.092128478725129
-1.796112800361300
-0.749913285695427
1.734456046023057
2.497150218877535
0.571919432830970
0.980857419027603
1.341510761046311
4.226399109364428
-0.991637608460989
-0.030734518971383
-2.316731539602676
-1.726129443021519
0.342782390447245
1.012292643612758
1.101044536531878
0.873448256177128
-1.959758722611431
1.156568822298629
-1.079987488075559
-0.738870375996493
-4.704610766517086
-2.277917342317725
-3.884953952838306
-0.911927924186785
-2.096714961689032
-1.157721996887252
0.256629583511442
-3.071257686182540
1.181945690628542
1.507795435297601
-0.698702985365490
-0.753760471712826
-0.716613406873825
0.814497146053332
-0.228260958220901
-1.917169364188810
-2.015208104081540
-1.409443057386885
-1.638259923374059
-1.329840299031677
-0.155070928544007
-1.671934274814116
1.261251936584503
-1.061727624270953
0.294937198026962
-1.286765792466655
0.885649717043233
-3.020535002573258
-3.517158281527693
-1.916845951188002
4.049397877777133
2.913035540035856
1.019970896059485
-0.787061119760982
-1.345826276432625
-0.885590867508836
0.123763332518720
2.644348471362519
0.985823272331108
2.547307520843339
-2.635038482343834
-4.704296564098891
-0.975545817361250
-2.727442696278092
0.270640857299250
-2.928114447206970
0.710059437810526
-1.126832821798964
0.519232608013001
-0.411253201897824
2.730399078746867
-2.226317271508355
-0.637250254312902
-2.863796823438338
-3.204812945741188
2.740050864472134
-0.529524339620905
0.322974190400779
-1.059905795399214
0.863674432873857
-0.097574920982992
0.614471971357499
-1.484404042573627
-0.280828583577176
3.423144147002509
1.973033885484725
0.900783208597200
-1.183713185104620
1.063137572334957
-3.627743649917078
2.635966425500503
0.138637902965073
0.815857871578429
5.035152230931346
1.957786964203916
3.125931921635021
2.844189487238972
0.222084485923695
0.838980296538237
1.080849372774218
0.292978418132868
0.596406983247142
-2.654780957503214
1.244464502394771
0.850856370676558
-2.043670623593111
0.074906579931285
-1.431145763763670
1.626723824311563
-0.805390267100489
2.154580384305227
1.035961414337108
2.370908393232142
2.853260667244658
-0.788551340083712
1.100876144108782
-1.942922976439323
-0.282900031786595
1.511316398728069
0.345951417010279
3.223960641902831
-0.921212899021653
0.204545529624846
4.616066516388509
3.107015169457485
-2.257351148043806
1.416830197214835
1.763101674089430
-0.789047578964895
5.397975129256286
0.186111153353949
3.105461280377971
3.604296909973485
2.601695198831489
1.904885390652047
2.668730334087569
-0.506356483307596
-0.534336263305195
0.854963376649815
-3.093854312089046
0.670217720435342
6.320071681463833
2.114328478937977
1.974644755983115
0.971857604721116
1.148084487863830
-0.116962934313360
4.053109959649683
0.542717012042465
1.881412312703187
-0.587036895489097
-0.587799895579656
-0.068296381399728
-0.209473279337010
-1.906849038995386
0.919079660299123
-1.915999988653049
1.128067199363066
1.916164094754161
2.278111671338078
2.644634578651793
4.299524881598619
-0.918829444727688
-0.979597752605015
2.969084545538762
3.469516438907665
-0.314505356168868
-0.828312530189312
-0.536664737921961
-2.472595511354812
0.892399977284390
1.655538658632003
4.926119302603666
-0.486276276954717
-0.127086914523988
0.890530435290465
0.665763673997483
4.584541560951421
0.681970142523160
4.004774073646386
1.667585134525075
2.823450512661284
-2.154987452842379
2.844223221816759
-2.048551520498059
2.325875311824250
-2.705720852334452
5.079742268177274
0.940618802865735
-0.025256486588086
-0.875672670058797
-0.452813972418001
-0.362345497352013
-0.413550874731627
-0.038610885017126
-2.868818914285316
-1.616126062564004
0.090186974414133
-0.758850288198801
-1.676106249624635
0.494112535453895
0.857558228856511
-1.645480956487176
-3.001055167738002
1.084723815226957
-1.579569921342494
-2.291420198330818
2.406375011734036
1.019136630184133
-2.976512931491051
2.294008914509992
-4.561667899049295
-0.039538372436856
0.870429181214572
-1.734697886461904
-4.480202784684693
-2.557471260363747
-2.390582823534471
0.007765506322596
-1.377041160312400
-1.258355767071076
0.627271215139371
-2.599736897819866
-2.931514305791159
-1.862052757542260
-3.979565641333039
-3.655395074705039
-1.766396291050239
-2.815631598215950
-2.994000627393506
-2.036749692821390
1.302246645895608
1.252562747328071
-0.753799553964121
-0.786234642613655
-2.726986413525279
-3.232920764891582
-2.513854730436987
1.081855292395025
0.777577495038101
0.582988245043996
-1.833501956907632
0.920984214192329
-0.952895742046463
-3.243867738459126
1.163766763529394
-2.318436423293214
-2.118972657476962
-2.086088171787891
1.452086791696341
-3.305630398534212
-0.202036266082966
-0.434931528381007
0.620735090651145
0.467996246767485
1.341449542961249
1.450146755014546
-1.394014503766079
1.568628333304220
-0.346444963321962
1.927829783617562
2.212643528252934
1.350090423337668
-1.114107517126681
0.105758839625073
-0.235918016162265
0.093393466120734
-1.597495473624283
-0.117760715315952
-0.270568115179146
2.479820651900785
0.259201861366441
-3.628066810540626
-1.919791131733448
0.421008572675027
-2.416251647214467
-0.693543736379527
2.199022048522030
1.235627843950047
-0.745995944731780
1.540100210322315
-1.109005014102019
-1.768349454185745
1.547990553565909
2.131753302909365
-3.646816414702995
1.656700142704103
-2.891740609848810
0.974591985373201
3.538906055688123
0.691357942748932
1.970861097930138
-0.938556062317204
-1.622340843517967
-2.853535470253737
2.056225588795178
-0.636453409274172
2.210668353268010
0.504156992607506
-1.979910137418381
1.996240243132944
1.227217540654156
0.462619189984776
-1.384967945631143
-2.361449163126675
2.324246281107884
1.835140020659232
4.557245246694284
2.472921523906154
-0.026732826865714
-2.894130750770775
-0.629479407887504
4.215058126197206
1.086724526635221
1.072986526650154
3.537928064532541
-1.580192854495968
-0.817415661146516
-2.189608605860468
2.513889742947052
3.704471692807349
2.293237713907901
-2.648010543444678
1.509776165452835
-0.941527151361324
0.370314381517387
-1.201515821020720
1.629222939355142
-2.074142317709496
0.644653554784230
3.133834061279192
-2.258067149614990
2.498589539553537
-2.891949245441171
-2.865855330041123
1.319274907609106
-1.153617052198235
3.033614683810640
0.712295819825865
1.508366737968239
-2.344661188035726
-1.816763619690594
3.662364468003172
0.678051588903570
-3.589790937194739
-3.622446865704492
-4.045046910671386
-1.180680552098663
4.604103429201794
-4.397448091602026
-0.473039278819591
3.055319449307454
1.144942129258583
3.546559392886500
-4.351000909400122
-1.031909842696066
-2.245681546498182
-1.982841774776082
1.636544196530408
-2.148735035253485
-0.413662921859546
1.404020927607931
0.033566244565213
1.790802608045447
-2.296584654480390
0.769595584408142
-4.099951392583437
-0.057168310642293
-0.265797553602651
-1.907940876106451
0.104262378761619
-5.859589358947931
2.537850405899698
-3.005141290706929
-0.272526959982033
0.092292170724939
-4.392823876286521
-2.076903690727015
-4.421893474956873
0.434580802084416
-0.958544589468152
1.319694725201794
-3.080563353148500
0.701196356433309
-0.574637138213087
-1.369874493070215
1.188936085207618
-4.076180021810600
-2.124134933181090
-1.805151999050223
-2.755669142600640
-1.945178743970240
3.620882277566843
0.223428825572561
-0.342777444573291
-0.462605786190721
-1.346648202736045
-0.575303999872533
0.614092373788583
-0.991830652820511
-3.657796940370064
0.598087770734271
-3.540853304685672
-0.069733252717188
0.898383933878941
-1.464544313498843
0.467736275001970
3.040445958855935
-0.168429684274428
-0.602620631226904
2.173158217909657
-1.471445851420860
3.101509347189910
3.620707391921109
0.313895696756029
1.130401555446984
-2.045192981995627
-0.159982033708754
3.531349229410632
0.700193709516921
-0.147682508606884
3.920832650158004
-0.618536318620632
0.164071487534254
0.291205926480247
3.442599407517518
1.850887586021081
-0.387589759148721
2.019159408369812
-0.431499011205564
4.354346632265725
-3.830187777195341
1.545306438750387
2.972608860914351
0.862368946528487
-1.536502790670378
2.750795477542525
-0.115302139819836
2.449978253384754
0.488128797984112
2.238451833766308
0.710371349698885
2.914601422835701
-0.052709405611862
5.967493379411428
3.788273000669419
2.805807955535330
0.001926677840907
2.879431868252764
0.704924548721543
4.886001918529535
2.900792193987202
4.219943158656328
1.107786752363206
0.531170795289722
2.027299229174682
0.658460776916474
0.119631522608268
4.215389688012046
-0.424113482366103
2.067791083539192
4.895810823206128
-0.657260948936362
3.953347290202566
1.451248188110333
-0.229418036800232
-0.721906274090532
2.867600295722387
7.521164190118467
3.138025210157276
0.826624979956970
5.836400275619138
0.236652242768334
0.982630474297521
3.470167139086720
-2.710108013796091
-0.472177729572452
1.942783498638225
2.430822213356831
-0.363637755673631
1.987142325934955
1.821773643176921
1.594690083713055
3.298851176728519
0.790019632146556
2.182682507592513
0.315858220292679
-0.782139470337334
2.168386844211226
-6.484668515164564
0.380889839698684
0.082372025257172
2.080586551043957
1.875471272570926
3.369028562874332
0.083211729838869
1.264978175670050
0.287703006835941
4.529194091355325
0.752603904064108
-0.830480565802245
4.204717953710049
-2.680239242369882
-0.431262028595595
-1.059872854314089
-0.521612502850982
-0.454245556535448
3.554583835386923
1.228338021304454
5.816742647146482
-0.451606394956724
0.385771571193628
0.414385062004202
2.898421083297254
0.869107061430826
0.265108901571553
0.020601130327965
2.971451710833441
1.139514109838542
-0.333888517233007
0.409525046783075
4.588667744226061
3.145219193907655
-0.696636516485668
-0.534149507570234
1.022590124105971
-1.846010746853437
-0.571259797292589
-2.314952978078162
-3.889097699294857
-1.021597731297965
-0.442490633909057
0.818861686947578
-0.456753990200632
-3.787419623265060
0.910287108529078
-1.841045239759240
-2.860480006026733
2.255551313028441
0.524532961599667
-0.332320204609445
-0.123727345035224
2.916055197387804
-1.529867520069477
-1.675521934635971
-3.796059415433547
1.647737736336592
0.520323449371173
0.362682916723267
-2.599513755793773
-1.331397317739335
-0.167407113766927
0.497615971614666
-1.353452355617547
-4.420950344731563
-2.515626490311588
-0.141874845035076
-0.980657791830714
2.518217238906522
-4.198287220618770
-3.497134799134404
-0.012764553217632
-3.213221506167423
1.637467844041863
0.716426769551989
-0.962406809760722
-3.162441235921458
-0.281975844194069
0.893252256949644
0.202024450701359
-1.230808212517297
-0.835462173055071
2.080712037789284
1.596104779116705
0.701093152964476
-3.069602514670128
-5.590756219443525
-2.142420078580425
-2.202025840022927
-1.227247451123186
-1.524211052690951
0.979640760865839
-1.593618792987081
3.128571576781405
-0.423855042489043
-0.043365714650768
-4.121592685582368
-1.837104496928796
-5.051559172668549
-0.886155523423997
1.357043115416940
2.766175836698458
-3.232474671908872
-4.122014602017331
0.847675158864204
0.385305896740636
-1.829995320227573
1.387651664442778
-0.070850968421175
1.009896622885151
-0.601015672644856
-1.458927643778020
2.210170663889675
2.511554342676886
3.201712680392800
-0.552391494270638
-0.623872550475003
1.078674907970615
-0.776957629547918
1.231982171223832
-1.018471542686172
0.060316793399886
-2.343739880211874
-3.351496603294171
0.860781729204546
-0.084384531271378
-1.050918950272500
0.347231255073775
-0.162254216742984
3.165407119835926
-0.249147014655324
3.062932334340665
-0.924916754112580
-1.152133300743595
-3.135534834213512
1.410800291836174
1.337855409993196
3.800088413950630
5.237591209755641
3.295547195737490
1.263019621682011
2.638332717489821
0.787899610649767
0.304712073071035
-0.603751735108421
1.995771279269166
1.180833551842796
-1.661806557721979
1.630333177574290
2.433887404419938
0.470158647158728
0.707586565407634
1.299702856819722
-1.111759797072648
-1.101422773843564
3.258581845637241
2.365127191870447
2.741637523947516
-1.012677170371545
2.370296973201606
2.134002038075602
1.958512107793895
-0.307532421420488
0.374228578110009
4.325991040798296
1.063966318681112
-3.014703224957639
-0.336191838320866
-3.954432803760565
1.397194891332066
-1.756559610257032
-0.342691756653942
0.688482665263231
0.388309795058496
-3.122530079540866
-1.664677052373210
-2.364480504652370
-1.422057799841596
3.499619312855578
0.102073312617490
-3.451496563491155
0.859915631382636
-1.284512938289240
1.159169324129056
-1.413504955775537
-0.580372690565122
1.757790795336920
-0.128982025313004
1.894035525939571
-1.252566874047347
-1.178877678563067
-0.091783789451885
-1.794070174502119
-0.294914014605338
0.087259633792551
-1.840997453161234
-3.106485610652495
-2.032173915517777
-1.776091092170475
0.072868020454815
-1.204575587663610
0.621298158110017
-2.824200072968019
-0.443481566203423
0.278228897420865
-0.269919625486537
-2.945738994423290
-0.380473730339783
-2.644903659199490
-1.482819682040952
-2.516827691101947
0.370566247372129
-5.126671296580664
-1.187259141281939
-1.881093397604058
-3.711507602145373
-1.360861744223815
-2.395074865763544
0.474468525831700
-5.524754048304211
-1.114513193184603
-0.572158352596122
-5.890252738740204
0.006144014580265
0.908991492215123
-0.130929350983579
1.717202588889255
-0.362141803412079
-5.634888256802723
-3.748805893934549
1.101654125420066
-2.150143552290554
-3.779834677642050
-5.818445425978596
-3.975333685279943
-2.952793959823280
-0.361869889756941
-0.267824931543109
1.833954184575528
0.560764330381985
-2.962886686439096
-1.218169307811563
-0.618908108686420
-0.269046596065969
-3.760387892793760
-2.782533426397194
-1.984012490346729
-1.445104211548956
2.349241634068110
-0.376490891673115
-3.120314598005698
-0.863172679158613
-0.998387798266597
-1.290361499992755
1.889302332655397
3.025799325463617
-0.600349710232412
-0.261223351016014
-3.228601354793640
1.307008776812031
-2.401644346199076
-0.158726530618187
-0.059513870751749
-0.873066587231738
0.448328285831301
-0.335819748034067
3.918114936452969
2.639234263053844
4.018224941977779
1.680337320809925
-0.013860301819168
0.201131933828077
0.260301329445552
1.739314034380729
-0.671888132001509
0.637490992536580
-1.559616263458068
2.128830328286963
-0.854257836967190
-2.479303305297292
-0.336839556236273
-0.790186730363233
-1.415576712306945
-0.814589276663796
1.665141724362533
0.289447961519066
-2.680242696761612
3.410934251341169
0.990653500914715
2.119137184251867
-1.646044941244395
0.346381794741974
2.997372217659458
-1.521341861319047
1.616773659323647
4.047603650560936
-0.600169713720595
-3.284698337170046
-3.164263643110426
0.728526912677447
3.729475919414746
0.283977017673290
0.539985317113186
-2.415407096383480
1.676196640106327
1.313521683702458
2.410817972182905
-0.353661270719335
4.024281960161463
0.783699298579120
-2.261966422406811
0.691652707789704
3.906188489031335
2.091250290465977
-2.516303852500780
4.686317882072910
2.270305810325053
1.299100944258659
1.079083935556342
0.726861662534845
0.634865192141832
-0.904153824283974
3.438638609296731
0.917039508859551
3.105804790689623
2.336752731107318
1.312045494785187
1.943548437795474
-0.746191386356748
2.084837130008634
4.348633470803156
3.466908647199948
1.661034931757236
1.944908653056317
0.908954474713527
-1.046481997551337
-0.510550112378939
-0.888687652585134
-0.073359993875498
2.848622562665506
2.943527237080206
3.550602053682385
1.975529851837110
3.155936396210625
-3.154486609518996
0.804183091908384
-4.615975583076901
3.031997831325497
-0.740106372909995
2.619350626282770
2.290785185855296
-0.399482328477444
-1.252495689629687
-0.181385057527188
-0.013437959641723
0.645302965178890
-0.190263306774258
1.204497072143305
-1.885679642353514
0.011661453044969
-0.484071106754585
-0.147205340553241
-1.158042079735223
-0.915799435558455
0.457878489245613
0.744773869156415
1.418832728193438
-0.321254393234932
1.319236946613230
0.813055903768875
-0.888709104615521
-1.014539422090547
1.312409690814205
-4.702054760329614
2.223130499835611
1.166910464972415
-2.543780546194675
3.897202979908223
-0.335180068312364
2.018220643424894
5.611199551057784
-1.658530999065545
0.050773423176181
-6.274068742930308
-2.396097288408964
-1.419603548779137
1.636457221693533
-1.354713707256702
0.048418882276092
-0.791609766699882
1.116961791261837
5.050396930962781
-0.511949276976470
-2.119142063360101
-1.380982068071828
-1.368100105095605
-1.536725699382029
3.963779598517216
-0.242912328603573
-0.062565365576804
-1.972175046875704
-1.348173520309645
1.278327811896024
-0.053095018065834
1.421005252540733
-0.020451373493289
-1.301273111185904
2.907320561029639
0.136054968198409
5.222467013932961
2.105776238588482
-2.989935577699763
-2.319448414507368
-1.957094646629307
-0.774404147916867
0.027438547574307
1.508437152611142
3.040931030548891
0.493492601729766
0.283254267534086
-1.473407565986414
0.469305539646449
0.770859811526911
1.085055904455537
3.113018251662556
-1.987984291951806
1.444689417297643
-2.419378746132356
2.917568382955786
5.715126776388845
2.402846673773337
-2.061666891827648
0.825405290553100
-0.243757859571393
-2.103072802187310
-1.223312575857007
-3.261942623294921
-0.602641415130827
2.916630638192392
1.510828752828016
-4.168145986842879
3.134939985782178
2.638686230825785
-1.561292649992036
-0.524803143193042
1.653527501560024
-1.742988188937326
-1.168651438570108
-1.063866628930265
2.051441871325662
1.172513113996111
-0.200835060495056
-1.249063013963660
0.433320922874784
-0.744672500705706
3.943499246604565
-2.749421680247036
-0.056759547476305
-1.499423493266173
3.836118687821940
2.648733909740943
-0.434497883929298
0.420022985811570
2.192746143926846
1.773541959636341
-4.177595543401358
-2.693652601877898
0.277066302788453
3.658231720420865
2.181014167066131
-0.772170961933604
2.479715536093113
-0.087299623100963
-1.069018170745807
1.467211120688281
0.411350501037891
0.919607475476244
-0.701083011452584
1.266341439266640
-0.225024166681017
-0.951283773660137
3.112197467410049
1.158077833493952
-1.374429934024124
3.829628082824404
-0.454802689260414
1.280189119825551
-1.177330698261244
4.958766445473985
4.931002997014396
0.946252970381551
-0.485093027136359
2.894386808128039
1.595694688119745
0.697266813651588
4.044876173733264
3.209905119630317
1.095107110625224
1.923932901435769
0.636473621940998
1.407049200972658
2.202284548980181
2.857849073069750
-1.241595148676020
0.694193255521779
1.767638576394957
-2.242683423164201
0.107173017321923
-1.026149015566999
-0.351503174944826
0.717149338599640
-1.304584745440642
1.723285049615541
0.357622213794999
3.093991742519749
-0.201783273502948
-0.649243499130657
0.303514647171603
0.929154236051796
2.010810770690616
-2.462737675210288
0.758675053567825
-3.068252130749274
0.961933271584747
-2.799888790581040
-0.553714523102717
2.507446414213912
-0.304820055792583
-2.015460526622962
-1.854166360579797
-0.619639521212919
0.254085806448152
-2.330340427091445
-0.013607791576895
-2.340970843431387
-0.904862101162271
-0.465211113188741
-1.651279880358218
-1.197892030847507
0.532968118522030
-1.791173725872370
-5.391219867976999
-0.011582245358857
-3.464926342105036
-0.490331029215050
-2.403108593444778
0.779234359400988
-4.336165457320249
-2.722240139016894
-0.664814734876365
-0.097590894364149
-1.579759744553701
-2.462546680642446
-3.800722390630856
-1.200331420310778
-4.057780550126941
3.047692011439549
-2.025097992338859
-0.437454899436232
-0.378212781658801
0.108884708280735
-2.512095006578945
1.879705986831046
-1.082318821508490
-1.148088533723981
-1.053109365340145
0.716168467650331
0.842386460572477
-1.860192765979359
-5.549739991116074
-3.322095951619177
-5.014945695015310
-4.371006446780999
-0.684634038768791
-3.272384337387204
1.231349093595131
-0.199221298244906
-2.756590718441769
-1.496714346782727
0.481269903015626
-0.857418421608302
-2.755829385371500
1.991291386649929
-0.824140358479260
2.282505575603564
1.156505755373470
-0.821878873480776
-1.728395736430305
-3.054321600771013
1.722605483373169
1.659805431797750
-0.986079901341684
-2.140164626711433
-0.720579777823694
-2.425520704093145
-1.691824665385290
-1.483089546359117
-0.602802673313423
-0.932123149902337
1.371337555417120
-2.455598301564974
1.669210421034040
1.602590091257355
0.527254371363483
0.028351342158441
-3.079447121575708
1.022353113141308
-0.347159786507863
-1.270987109101743
0.881895649699390
1.023435364412045
3.862688682698404
0.117911097140369
-3.427178480337808
-3.336327326943061
-2.688539965206453
-2.693127489204996
-1.208410944886841
1.818134996610132
-1.256693724725978
-1.484911514879394
-3.221344626196927
0.907752988007410
0.296427290989187
-0.587433314290287
0.115331166732446
-0.801159241952152
1.395033396042313
4.467924571232729
1.103685427630543
2.558025287382769
1.298160678268076
0.498312751266565
4.780404210478340
-3.036655452538406
-0.641685125663610
3.104910811872721
-0.115869930939053
1.472558581912687
-0.457012495401132
3.315527911619798
2.216638359793806
-0.627532654241557
-0.102981155402227
-0.785811109894380
1.804407027477872
-4.275370568102717
2.234338573009897
-2.862925700266547
-3.754776782778513
-0.094133185070842
3.059021338546882
3.793862492372888
3.188365698980571
-2.405493122857553
2.287845445092774
-0.663451084446538
-4.620875292718539
2.670432078170531
-1.825463403910615
-2.140823487836493
-3.074025287144368
-0.307901361411834
2.958349118423868
-2.587569643276346
3.997346987855004
-0.819533030363721
-0.170977684723244
1.231334638600753
3.418065929255723
-1.511309406629167
3.861320564627197
1.206227210373995
-2.665423428041021
-2.893699085759459
-1.425064535848272
-1.141100827079753
3.871553730583676
-3.021730773412823
5.955750306517012
-5.588563155466453
-0.644165699504474
-0.883192612450446
0.392181841261378
0.688316761997814
-1.981896697200548
0.605599118649023
-3.692824334618336
-1.991711062314439
2.725223416026315
1.536490915315382
-2.435811609482047
2.668134841296363
-0.772865484317581
-0.348284682771707
0.494558521942428
-0.136265168565029
4.127365539792788
-0.388953330724135
-0.271637238293016
-1.144662742314521
-3.454832023683170
0.168331193263574
0.486905204129866
0.453257784803270
0.583075090154356
1.333741227381819
-2.235755518779294
0.416637014185684
0.495345731382235
-1.612045288201038
-0.789552773998927
-2.370831460759251
0.027590029173481
-1.439769416071350
3.071814816370782
0.165849019823857
-1.379666197312703
-2.222926534269909
-6.099900610467330
-0.320448089559560
-2.334367254063258
-0.297203687386550
-3.765899833802145
0.815697022703856
-2.075825476765825
0.079963312352787
-2.251858980109508
-0.849125149903547
1.725171388914012
-0.543905064785377
-0.017529610820838
1.855290584082020
-1.516012609036149
0.311366068506034
1.546648425321126
1.717051740641463
0.726923489292238
4.842347553883165
-3.034157564269432
-2.147034587918543
0.153905771459496
-1.310133172709221
0.610894168497679
-3.090372180935155
-0.148924885233373
1.435750153641383
-2.260024687474997
-0.887152658663016
-4.210255545231929
-1.798109149830544
0.517693688083535
2.531100200674334
2.494016062670295
0.538743926695684
-1.142232472267224
-2.758836597001071
1.729889572584529
0.946128666299199
-0.891157895867121
-0.215630460322241
0.461099093022351
-1.170255678690149
-0.956573568306896
-0.120359694701109
-0.642952068338496
3.308839708632588
1.044857756994885
1.775542007773749
4.975529041355648
-0.032957984946773
0.160107044744937
-1.841314694291938
1.771823742587305
-0.098449867364763
-0.589211667023331
2.262019786895670
-1.763995465202592
-4.125205812043129
4.426130034220748
3.778892337847811
2.493707504446926
-2.496715968609114
0.408094071904740
5.826609645109893
2.923278986833726
-0.122062310997698
0.230628556620140
0.655545327038401
0.798091511253133
-0.531518222850255
5.459971035116997
3.438787874311553
2.277324757354399
4.595459225568884
-0.336164769701279
1.670118151266821
1.796604102251967
-0.731953584183152
2.972658372609921
1.243425278817865
4.197304697022553
3.055404109513527
0.523168124287868
4.542687502823462
4.005925941782516
3.496648274277542
3.447782306804344
0.927125996923277
-1.244240321309865
3.025921103779092
3.450476936638904
3.704776026455805
-0.418594541000147
0.501708825371280
3.270527426499781
3.116925623447634
3.345291895622442
-0.122655700870594
3.271466436277022
2.378749775154455
3.018324042471036
-3.377876162741957
-0.286162673162052
4.587453966489130
3.713522205974003
-1.911257685765050
-0.047976269015878
-3.319075368791244
1.757917818352884
1.100847827781023
-0.083434163004242
-0.498807030191048
-0.481240826430336
-2.329858255950740
-1.673747239958819
2.099422820669918
1.533983705209264
3.284045980504368
2.060312934554901
0.708498719675856
0.290404081323867
-1.834056069536699
-0.417167017947613
0.459805234489143
0.045093873537480
-2.922219557358967
-1.015803256686165
-1.561759615020050
1.256326537392418
0.384935464585675
-0.604134619972958
-1.644637312455540
-1.627630725501470
-4.171227542521523
3.045270096134048
-1.682797373852413
-4.744056124122704
-0.589528786266405
1.266359670006621
-1.675999071549128
-0.509332013115564
0.189188391524209
0.120373005229850
2.174833974902376
-3.132699641992622
2.317391921714597
2.699856947072151
0.838422466224002
-2.128717914399847
-2.759699720458209
-1.335668981449843
-1.265059959759447
0.140231038230855
1.394292623213249
1.412824293317750
1.486309058068384
-0.668058365176651
-0.900177966693088
-0.322941596252982
0.238041370118547
-2.696934178502276
0.633658038826429
-0.845069161150827
-4.315971618129666
-2.007487511652015
-0.652661456541295
0.055388816714329
0.395496198257492
-0.146485579159100
0.657127103048319
-0.435739988338083
-1.726143804230298
1.207827333786198
-0.821343144975593
-1.090281915296331
-3.259004681471600
0.665325621011008
-2.478412450201132
0.775681194558717
-3.520361826798043
-0.489754320681573
-1.751495820852436
-1.126524125357395
-3.740218803512877
-2.057464082421702
0.986173307067355
3.687818150354588
0.474576211262822
-4.609338162633222
-1.828206071914561
-0.045408613721352
-2.244853302171412
3.270585631338869
-0.956696619764764
1.751435051022401
-0.229505101520027
-0.635848947497472
2.905470517303407
-3.148420658174802
-1.714916608529727
-3.839131803462509
-0.121177050558622
0.209291008331346
0.439605223745621
1.523550599416367
-3.154114589060071
2.308641855356812
-4.218611897542675
0.586065844615775
-4.338058860402928
1.174693685925280
0.077855062401064
2.020067589849190
0.997300882294926
2.246168014512989
-1.492250409780693
-3.452763813767026
-4.257184206440913
3.839340893946053
2.076381399528335
1.363406836208751
0.917218650472442
-2.067450019791222
0.192749438831823
-0.588110406186385
0.881472142909111
-1.134434699097760
4.964895870590746
-2.445439408259544
1.637382250944096
1.407772022213730
-0.447062193986620
6.259488174854656
-0.715553695449636
-0.079560136562765
4.567542160899953
3.603528721145267
-2.747492373592189
2.480699736873805
1.114420671158771
1.364235031509352
-0.827158287438058
-2.332827461342716
-2.421732867754932
-2.026581833075182
-0.880594593034884
-2.019005530700696
2.362655375883376
0.845573416248221
0.805341912364961
-2.078481515416161
1.819237293031868
-4.661872079522522
-0.927322845481304
1.547871615633567
4.357896579859955
-0.480832925710232
2.079495683915957
4.828170790737406
-0.924318394026633
-1.087041873318535
4.933522485986888
0.528936122699239
2.561016876002207
0.880625083038823
1.748139800817379
1.547404017936659
1.087974196816228
-5.387549879730154
-0.889103798755467
-0.754355455516492
-1.633012333618895
-1.451561249417693
-0.936481434914863
-2.352573838271238
0.120050821230268
-1.580560661570943
-1.547426103082427
-3.318728373673012
1.674210550919622
-3.807606985170341
1.450148576971950
-0.180744222584100
1.062677256630621
-1.542288123677745
0.801844484597620
1.573964432538069
0.110411365169815
-0.046886489108889
-0.348552757532096
-0.709047807507394
-0.151471597775358
-1.230888896011827
-4.011302007104714
1.550458389614696
-1.899912793712836
-0.851027499812758
-1.017032486974696
0.549492088870575
2.247786906916840
-5.161911321992207
-0.247961067620736
-1.670342781364434
-3.632995493439149
-1.642236906427517
-1.277788800299251
3.475090303337791
-3.947567393802461
2.816300596054137
-1.021543345585879
0.558204820817649
-1.993062316875294
-3.266865602638442
0.131113281869201
0.359642498958422
0.604685323492238
-1.733267468443134
0.704299963887407
-1.697504905115174
1.317206106298255
-1.047206676238877
-1.851686749593956
-4.752350905214746
3.207428195056381
0.042269321539262
-2.237967369361576
-1.011969169978547
-2.062431676454162
-2.688857044197375
-3.084237144601087
-4.561944220091226
1.297653524832277
0.282803627635089
-1.841369619782430
-2.216788338042576
0.563209935996777
-5.138452351498352
-7.148201706820601
-3.147325058509781
-3.345145941086366
1.400192415777918
-3.104309249051791
-4.812077094663790
-4.424894618222916
-2.339603812460477
0.061401108616838
-6.462887779740347
-2.341450117125896
-2.808485928917678
1.083323292553455
2.918242658650728
-0.112815902881235
0.309108016992049
-2.416622269939261
-3.163805739777676
-1.251444509557922
0.463406261841310
3.417741301523220
-0.437742096332002
-2.896811749042507
-2.849753692460036
-3.108812328724536
0.463714697827762
-0.019073725033975
-0.445689633113973
0.263445108310408
-0.843403487361160
-1.689104052659504
0.308300197679321
0.650843932541877
-2.534963820654983
-5.085466703422522
-1.696918629486942
-2.652673470805300
-2.091399638460264
1.710861114892921
-1.711470102727939
-0.367521275850211
5.646897914983183
-0.002600700040343
-1.989788250206882
0.486453912627351
-2.786931294774331
-1.377155180289678
-0.898009497607199
0.265944879703866
2.704478768175657
0.651403435275360
-0.005363291454588
0.887733954832975
-1.924147966612085
1.344761765595924
-0.688690510791345
1.594735947400215
-0.055369323462530
-1.117241870576220
-2.704974059599935
1.103311910240598
1.751232480321385
-0.297931895827841
-1.829581491636885
-1.395869376237809
3.035943039169254
-0.469280493633009
1.610343325943605
1.044968606294960
3.101875693211713
0.035698265831929
1.207669258750998
4.663970446006667
2.699150983480071
5.629073373401825
1.740606465850884
2.676201737107967
3.531746424306052
3.290319535977840
-0.515267710192207
-2.743553729448688
2.550192330007834
-0.304186210396418
5.672116229274306
2.507985656375424
2.839116487088627
2.892412888697730
3.752305914490322
0.845657311511074
1.317954682672600
1.896226674195590
3.569485534162335
2.435668737326722
0.403051762690767
3.351240375994943
1.993301803876606
-0.577073883837552
1.481498194841311
-0.855828559129176
-0.089143223106039
2.575252352995799
-2.446400246108829
-1.506132972813269
4.140183045192247
2.166151008096890
2.591853245905726
3.372167861480082
3.766683747472775
1.837918313251587
2.906953185117271
-0.322044770922223
0.566429225010745
0.475596343159556
-0.259999109575898
0.027523780976134
1.946897940434409
0.556145338019241
1.296300859571336
0.164679259174898
1.049604496280349
2.807947289445610
-2.584439353244201
3.552275415320071
1.934447119118024
3.606173894612230
2.843198313041353
-1.807584487027149
0.394854464560413
-0.320762885511222
-2.292647689517767
3.740800571803469
-0.187156533487491
-0.002258066425187
2.293776655160272
0.138852529416779
0.119852323995847
1.260999666879295
1.626670879896538
1.903489265999276
1.418844248091891
1.877903887691846
-0.623623178066410
-3.371835294450087
4.057175153638641
-1.105062728839088
3.210061949569175
3.115383174706950
1.804829318825652
1.333963405315816
0.343435820820638
-0.443448008935087
-0.973144088181093
-1.402414959399709
-1.324603878404048
3.225496530456990
-4.310357794909792
-0.626137268254229
-1.028891669145517
1.580481669012503
0.260089434203369
-2.205647241209042
2.292028194431424
2.870104407430778
0.254648978281962
-0.089619396605102
0.424357654987473
-1.247210915696194
2.435141076433801
-4.066378910171872
2.598906551603696
-1.913582009641223
-2.003596764012492
-0.036913587457788
0.324533870993674
0.742072301585635
0.861241225819564
-3.031124939173326
1.064773136574763
1.034660585472318
1.087510097609739
0.043170798133420
0.294031166737290
-1.981526369630807
-0.300255051960221
1.336916225722810
-3.237052854539994
-1.019018652903854
-2.867408373452964
2.479547886741935
0.735798153010612
2.438162620154873
-0.880417192652501
1.000352500953190
1.113580114406189
1.988524970962355
0.448402412606094
1.035462430693069
-3.268313895486205
2.484251109908223
-0.934832650202945
-1.281662199656290
-3.221585800504930
0.332071225700401
0.318796423443119
0.892141818915034
1.499728353935551
-0.356741433848441
2.422703640431681
-0.603143729297708
-2.088188847638333
-0.465253603045183
-0.999675674753148
0.734106526924559
1.300953985635135
-1.785492247451821
1.086567561596832
-0.499759315313936
2.363623805919301
-0.885471760748588
0.429002564002381
-0.387858488148553
0.134567557796137
1.725400950951473
-0.774950859037565
-2.046164738180646
-1.222477404322099
-1.933068502935971
1.731724803893757
1.208547277593502
2.292125293304800
-0.728407938172737
1.543016197287622
-0.290331708997721
2.097167627950697
2.029065433478781
1.293089873591760
4.757680463600534
-1.203878544743274
0.503201707892558
0.950634392241780
1.317878819240173
2.436597335436026
3.816375550553483
-0.381743998052035
1.278876680709278
-3.079879136435454
-2.353298242948480
1.210628674877671
0.893313625659362
-0.324479573206182
-2.222122007185883
0.151587888640477
3.094846664888781
1.606482098998673
-0.797184717871565
0.777338247871796
3.004630212116119
2.197731662327693
-3.765017050025455
1.255686223009756
2.347703764504732
0.416952048987891
-1.576004984128322
0.999555001563573
1.541513162641917
-0.310671048611103
-0.029823545511025
0.551305394380275
1.425659272662646
1.220901758345881
1.749387766033882
-0.153592387483815
-1.331347381195319
1.982195454340449
1.659623216078427
-1.514587182152799
1.226853167181863
1.486635466994986
-1.136897541511497
2.910717036035060
0.390330415439764
-2.747046152386917
0.624853947611962
2.249407551594209
-1.540037833733625
-0.631164000131509
2.554538642333376
1.349058520998247
-0.762650618670642
-1.146157421155704
0.514608259864250
0.559838369725914
0.178622728980995
-1.919335874078148
-0.381344263409098
0.429051476252403
2.298071221702738
2.034846077273966
-1.006299738365331
-1.313936313879369
-1.442967660097285
2.992627547726941
1.294433348560018
2.695900058347769
-0.690290539588173
0.512031023679214
-4.428920437981818
-3.656865763542176
-0.857494912685427
-3.023417230679443
-4.346846487662921
-1.672977302487306
0.782112625380890
-2.394777579660413
-1.844422247171018
3.175862559573614
2.047094979656801
-2.974157361450747
-1.427870788971571
-5.957035419631445
-0.491472536032254
-1.338970640321364
-0.790724502952200
1.119302058188961
-0.443669559359041
-4.426732530433298
-4.860268951320388
-1.267428293084694
-2.907874990226731
-3.547941998332898
-6.163910415114742
-3.151410032063857
0.020179546985765
-2.998974417561469
-1.703709764825355
-2.971210605656614
-1.242642565727672
-1.966040447651447
0.764679948894033
-3.846818100949520
-0.949774653774697
-1.368884399943805
-5.161621506634603
-1.021939461281718
-3.744916408044205
-4.312588535944895
-1.770297770111135
0.758830261749524
-0.575334763143222
1.456749871459651
-2.365976783689030
-1.497146810276546
-0.465400279529266
0.301960943544920
-2.797068648218668
-2.236219137794558
-1.583382840475971
-1.480350430626558
-0.697944591203128
-0.483331671901592
-2.000325437104933
-0.793091092447032
0.563148159866943
-3.546207708318816
-2.152288884998267
-5.816388163996082
1.514054078212721
1.012550945811311
-1.942836250863405
-1.895622469571041
3.454600535894044
-0.433419125592816
-3.972914504370799
1.718019639700529
0.146093068647736
1.797487852222913
2.001653995885139
-5.284742537387058
-1.040713056082818
4.291174320780721
-0.392996780622001
-1.516496835547116
-0.208654907785209
2.296027596209890
-0.442334705519693
2.907379576157065
-1.797602992435354
-2.764206126664229
-1.584543812671467
-1.194836809619748
0.390583609158356
3.874945482705439
-2.596103785345157
-3.583356984546362
-1.484658020259267
-3.146691136446933
0.541997448800556
0.054975051824816
-1.543549630520368
1.442291528318584
-2.516922596547991
-0.133293315717502
0.934016059944592
0.000797111831158
0.626026881754959
-0.386324000792988
-0.660629694156563
-0.010862157728604
0.595120968520542
-0.540088159137455
0.759755747723788
2.347965476247252
-3.712971166242621
-0.304715467999988
0.852235590268591
0.550900905888010
4.428874585077637
2.512862412473465
1.857848956493730
2.207005102582672
-1.315220704489516
2.073126572148505
0.142077931206737
-3.157920387973687
-3.537188080277279
2.262385795657703
-0.529353721424612
0.721563845315254
0.094343067229543
-1.317779621245838
-0.316017210027354
1.583428492567750
-3.742438160384853
1.346798576059335
-1.093617980720171
2.534333237617055
0.594300407171931
0.383288866203487
-1.270081631495793
-1.590561485923823
2.901833742029291
-1.474216997583048
2.664917250547245
2.690512351974485
0.751096342432769
1.559698036220795
-0.264447906199988
-0.544019956253223
3.066815644491203
-4.820302114956786
-0.386218141210509
-0.046525204105728
-1.181616203603324
3.117355065518283
0.236733285857869
1.364968994762791
-0.646676132685906
0.879361748804934
-4.670723229454413
2.679056011633841
1.624794168657685
-1.318428365822220
2.014979160587139
2.109374931061761
-2.449404568879690
1.379374140922778
0.603026700848122
-1.079416876613798
-0.220105011027286
3.649584135543049
-0.454648975168871
-1.535807163097431
1.069221542966010
1.918344455500805
-0.299983108044127
-0.667757944463778
1.930142227551598
3.120670410587818
-0.726982446544109
1.156679791973480
-4.094817375951944
-1.733149303033416
-1.654486072278052
-3.130781862186741
-0.293109145425259
-2.066032219442201
-2.457287924168403
1.809284181814520
-0.241310131294201
1.852872928727067
0.169053418868439
3.266429752834453
0.785598671710406
0.847640553489647
1.415343299231859
-2.207539728607410
-2.562947453777844
1.690282095199112
1.346556010457980
-2.089431673461470
-0.665562908465297
-0.475305985598203
0.723095551484453
0.253962129460221
-3.355737770088983
1.494422946283977
-0.207114494741372
0.011018583018227
0.239374508389450
0.052235995785181
-0.885208377845477
-2.318012565480247
-0.890914031899498
-1.115668296054338
1.400970662100999
4.572777569666077
-1.611087216364310
1.498458489299522
0.700054468304972
0.173102949201507
1.392620322940483
0.865513919782595
0.182242286680150
-2.597178643666172
-1.544908034037292
2.818538954803527
1.686072674912066
1.050049215538130
2.791357111347729
1.074821812555734
0.369161344984407
-0.350662816783905
-0.732019870364321
0.164332552269346
-2.657797390696667
-0.174931358927809
3.179723706301864
0.131370275890311
0.863679183239306
1.096705187081380
4.985184039965698
-1.470731081332615
-2.059315530259926
1.980674863473743
2.379421159881831
-0.312938413107517
-1.023788932389042
0.470310001316520
-0.542109955247387
1.915614243930516
1.358936210152141
-5.672003840105320
1.273737947766579
-0.911514935260858
-0.409770959316730
1.570133380471040
-0.084582547658815
-1.490220628712722
0.820021890307015
-0.247088331520664
0.404756474597762
-2.060188862465135
3.111867268117996
0.882250859209014
1.603208674489588
-1.012936005141289
1.102377920683594
4.003939225503837
1.290807741885778
3.721818772117612
2.619501573865208
1.855820299327743
1.551177514402893
0.960404010430084
3.498212596252088
2.633513923550058
-1.101357060803494
4.350362176157389
1.629678870594687
3.027643117188895
2.590124775871321
4.084502718851232
-0.331960885466344
1.188372957480116
0.942112317446263
4.500876696544725
6.188818224544288
0.817092880867801
2.406363470495117
-1.287341189610392
1.255178647334849
-0.380564287390795
2.388219898701420
5.488418931302910
1.359080128301846
2.179445179366794
3.362944407882345
-0.533850593737306
-1.884173570824038
1.232076033485662
-0.451856291635196
3.939980882292289
4.078197136331401
-0.171245862269124
3.720312550156681
-1.517994135185372
1.850171313759943
1.158902260853537
0.948836466992188
-0.161770842957721
-1.140033924438919
0.268738058870838
1.854556337709683
1.444666516763703
2.830125252980541
-0.552932995684911
-1.185834415172012
0.974927336450980
-0.310991835661450
2.422767313584689
-2.416920901539756
-0.597029816198549
0.574449462554765
-0.791938648567457
-1.679015062882113
2.390906537794233
1.981094921908325
3.539866998962090
1.379102473420819
-1.054354962717816
-0.546983407138549
0.674515279008056
2.263232201022825
-0.521607607634469
-3.543080589280045
-2.247733262604541
1.012652529117750
-0.316012303610052
1.496173777937740
0.441641344176874
-3.292372101797076
2.002669725801395
-3.048823284810958
-0.752737638443265
-0.366180893757255
0.172858246441710
2.177712172602687
1.347745233542621
-2.758498227896405
-2.740704453261250
1.189144705411945
0.368024292268152
-0.561842906686823
-1.042092896259365
0.201266810161483
-1.948041475116826
3.258596770144496
-1.155644394362592
-1.156868096101417
-1.860122192796061
-0.672584491218773
-0.876149698958413
-2.992380484931883
0.662761635952398
-2.574491314315228
-3.000837834684486
-0.298947695053294
-2.198125607557497
-1.854398947208749
-4.192903674639428
-2.560831785819397
-0.042691846534801
-1.740353259402442
-1.398424285388823
-3.301850795710031
-4.673714793153046
-2.969962875578775
-2.373200521667785
-2.172564047571306
0.834851253544959
-1.888309470799865
1.319514251401978
1.765778859631107
-0.958647420189270
-2.305550000683211
-1.015650215512616
-2.058132857585242
-1.650871225832746
0.242236436410957
0.391838186737480
-3.719851291179755
-3.371409612863008
1.409229289030938
-2.076326115898068
-2.167934158495139
2.003805058865885
0.548853434258582
1.493973689568116
-1.988264873873141
2.336083563585467
-1.793454656675267
-0.636155321665702
-2.555852280857187
-0.501158418183975
-1.366386989502580
0.174788067603900
-3.019580593882130
-2.994322897938433
-2.510831098937223
-2.142664327482938
-2.307322224599965
-1.678654900641365
-3.741767718357125
-2.286652318105606
-4.630536132296552
-3.699919503318530
0.449517477378579
-2.670643449288127
-0.607412920380067
-1.785126999724007
1.334672475928864
-4.940804675834213
-0.186885563147874
2.914037993266523
1.654869475293697
1.213309592713626
-0.916522049622855
6.699685999297117
-0.238004950137296
2.046522923098421
3.441050804444825
-0.498207189659770
0.110713473036929
-0.640640608557645
-1.924730308579318
1.582231458800355
-0.021988846699177
-3.625850127883555
0.085829840897800
2.399602985558293
-0.181743358093734
1.095734820150539
-0.101237351058467
-3.829925284656813
-0.791989171277222
-0.139966424862522
-2.745570995723393
-3.522484965889003
1.797516569012310
1.074585948375035
-1.262586553357222
-3.099407872863597
2.460898841463832
2.225818413384942
-0.888708330765857
0.158898027117919
1.260643844487553
-0.227472957701024
0.607580255475706
4.032997619235488
0.264502683365768
2.788362721415806
2.061144954873292
-1.259513080919934
2.753325588421567
-1.017981767924003
1.078511609390732
0.120162992266707
-0.550587232897046
2.398232898130240
1.142040760271843
-0.211626270349247
1.773061456958555
1.339224364614807
1.516222910298906
0.019764063889600
-3.723930263986799
0.664961896236039
2.286532342931669
-0.984379439833895
-1.371720252541437
-0.336676372192621
0.878825082619671
0.479547024171466
-1.063272697530010
2.789159464556877
-2.934357421498386
-3.096371984708476
4.630345787734219
0.312733173508159
1.697244047608183
-2.133056495315958
-0.769084710734765
3.006158194380087
-0.680817725665603
-1.598674581257350
-0.458001482586876
-5.058652988654718
1.154525449418221
-1.808508295163266
-2.709793581116130
-1.702557463395912
-1.402104335964084
-2.170222081388353
-4.818867282989803
-2.441321480188318
-0.999070327278118
-2.833898509353642
-2.056152043399175
-1.616183696214794
-0.645027225066965
-0.820863644035885
-2.211359497920574
-3.366530110817543
-3.481189951549029
-0.255766096504862
-2.006289998969935
0.147466273438494
0.004462635275681
0.779056999979466
0.152721761827874
-1.693940689664669
-0.987998435456038
-0.536131060056394
-1.296908069224102
-3.143246401569401
-2.073116714642642
2.481825252905187
-1.997280318324359
-3.455093200752408
-0.866068386547964
-1.894367365811622
2.086004568292964
0.075015899541578
-0.115304425047841
-2.382796013557905
0.909990880020934
-2.642914930081826
1.407441598842974
-5.433414958797002
1.962191825739910
-2.401067517170382
-1.342260053710869
-1.238593220139813
-0.304035675026834
-0.319963385463618
2.357874439644319
-1.014377054664842
-0.317040815785763
0.331589046923329
-0.238224651513565
-1.217519601781280
0.504863189827102
-2.509727199763966
-1.396448873502498
0.424120895607242
-0.491121015111664
0.771059333342882
-1.488270291752066
-2.077902123584199
-0.326773824442982
-0.763442487541423
-3.205142171238864
-0.321828348091232
-0.378782688574071
-3.269039019958241
-4.299938508545792
-1.138722720284613
3.219616045659223
0.849785660651075
4.052664626180030
-1.872011867504590
0.305120812214818
-2.053272567054023
3.646930196967837
-2.149942739297355
0.689948732666127
1.354144711148438
-1.680128822179891
2.799282738897139
-0.803885095598879
-2.080892942468713
0.855786629904805
0.213337121995437
0.795439314733305
-0.186707067963140
2.981589065785781
0.990493049984507
2.092862197090287
-2.013929189346064
3.299935508744484
-0.085705338151754
3.494995405742189
-1.084705528076733
1.336388441257804
-3.780167376850733
-0.064383922998640
2.788760220311460
1.785456455329062
3.608041702150431
2.283580583671095
-1.130027474206752
2.243664096799663
1.326391399190127
5.037917419899340
2.520790571198628
3.455419662741252
2.482925741456796
0.640451068970120
2.979653707427605
3.147268979340919
3.445319879676842
1.128574345530410
-1.238555340561923
2.890900122688918
0.585816110596087
4.081527191267861
0.648845578968595
4.441763166316450
5.229713129511092
-0.349973691274561
2.783524576345942
3.629345253120778
2.328246522820210
-0.205068103365346
-1.035090839878271
4.081348159723557
2.363381290985801
-1.547534445121996
-0.650752709660142
3.631600775459686
0.328770984783090
3.493961619355286
3.492919089665619
-0.054963826090552
3.762258897859274
3.064887561405467
-1.629297522587803
2.075406115657206
3.030406115163585
3.260442120047152
0.467786555319232
3.194163196565117
-1.326434781102737
-0.756197386620579
1.493863895850421
0.875148785236874
0.275331577636401
3.006138728399991
2.689039587266902
-0.173971137889127
-0.175341163916017
3.584950557001966
1.978490385408833
-0.053182579631137
-1.734093026838371
1.292780304003464
-0.265506506480227
-1.458702179898037
0.494498666769254
0.658300375328836
0.831667794355522
-0.693793536147439
0.752634598253748
0.602696725708687
0.280550579740068
0.596145757141541
-0.343760924494647
3.012431855884376
1.390647544660947
-1.342971610960543
3.283918808970756
-3.516808811514130
-0.807678529969311
1.715043349447063
3.578009428182829
-1.165106428082159
4.164385891938666
3.061283537298984
1.806038839968900
-0.467704546046904
-0.038902165863148
3.444310702036504
2.573872857539488
0.397424797703389
0.113394320174075
2.826539044340417
1.001341242251742
-0.254300707714709
0.002985771155944
0.693137720818941
-1.589452352261507
-1.279647306512708
-2.008053048533248
0.226227448821263
-0.852456849927274
0.442823361355878
-2.954048390292322
-1.998150019286681
1.386945107233275
0.045458003318635
2.355531415564669
1.539403019549653
-0.599898719059951
0.461890105564856
-0.745287081676601
-1.207185268795631
-2.514519259298098
0.666073625078226
0.828494882689228
-1.034705657020848
-0.878351031692533
-0.166927737948026
1.063747613942621
-3.112224052234085
-0.796432059220882
0.538812503168548
0.575617555400700
1.044117868050193
0.076819926393547
-1.116112422714509
-1.644388234901054
2.183094921587249
0.848662823717082
1.439832490914292
2.357693928106398
-0.158151936442631
-1.013803864480083
0.109596704603801
0.908000423694488
-3.862524445034281
1.428458105510125
-3.657124198872513
-0.479669047911291
-0.691240365263248
-4.105180875218042
-1.095014161554096
0.838578575206826
1.536985720179247
-2.037642126356762
-2.695653577367793
2.663285843856573
0.140888081775322
-1.248158695852423
-0.603206956435016
-1.192997941012524
0.643693554979821
1.439560825180495
-3.170563178218099
-3.766337556146585
0.094417514358136
-0.575653390287642
3.042293828595069
-0.185978237911785
-0.287223765759496
-1.786531325703994
3.259926151931425
2.576725159660500
-0.292696164211296
-0.345778937192535
1.879520508544804
-1.956508399799287
-0.445715988383774
-0.635240298999020
0.247207136567078
5.531303027710951
-2.020605721530647
-2.487633476322083
3.812033338612840
0.443399704887777
1.816337180920145
-1.599474778310024
-0.900490154373250
0.916984721662141
-0.301033221508796
3.698099012485609
1.695064582707652
-0.311145246205079
-0.744269832690054
-0.176145089409943
2.018220065299996
1.797195031646464
2.199283666700801
-1.693798383739608
-0.171484764300027
2.837153070266772
-2.410409807889149
1.467253838274989
-1.512835654528058
2.212418860031304
-0.137111702856301
4.030743354148663
0.083127495990395
1.792741576246122
-1.814535461785635
-0.386455860300144
1.091723927301350
-4.748439728772826
0.385532592714410
-1.134486489764898
-0.602554037750621
0.664433676506924
3.938320780804396
-2.197041349486426
-0.483465674454278
-0.988395596794385
-0.798435402841063
0.733849904958572
1.579000868169949
0.170392088887791
-2.031456935725247
-1.545024239561458
1.495624476342091
-0.365174851703015
0.516624173589528
1.704772082609237
1.138867720126889
-3.344029405798950
1.360409778399497
-1.420612984576454
0.761488412825933
-1.694976442618252
0.151081613707201
-3.119018911100999
2.505980053917261
-3.560387824953309
-3.609442217064236
-2.814049003715218
-0.841548305193471
0.949548301981735
-0.825911121521066
-0.335784719052810
-2.865011392245673
-1.645759972611058
0.024415975994659
3.490415565242072
-2.207230055980527
-4.263840609586618
-3.408021442839112
-0.162771955777082
0.912931529979906
1.403022518282815
0.964730113430955
-0.674173181024440
1.134103453273308
0.097201957018822
-0.581352568459844
0.534499545837406
-3.322147075603458
-3.030055425018798
-1.423191794757297
-2.368925019594440
-2.941623424872920
0.755770618957563
-2.369049926297539
-0.106878298374249
-5.084467162996765
0.092519689670739
-2.753330999592890
-6.142473283945353
-2.866368199629769
-2.171171292604186
0.421221441054370
-0.824170509983001
-2.710122640056515
-1.279515218879466
-2.161431472538864
-1.789138990418044
0.015938058353103
-0.257580847956622
-4.747275846071089
0.928565858342191
0.379568677391443
-1.818393730331051
-3.385594975497588
-1.999991425041909
-1.143239682139255
-4.520258211818267
-2.349093290137005
-1.495003597379865
-0.254092971724085
0.463762206599075
0.997071030368942
2.084800184903405
-3.128698478044077
-3.450267991789804
1.350858829684541
-4.250353631838117
-2.902685626390188
0.908883925481834
-4.369740890662835
0.343428430455032
1.018999277489459
-3.301047861962636
0.631423585953041
-4.539124412350532
-2.279067899008381
-0.975451586599033
-1.481805119631841
-0.141372108663272
-0.477742287997681
0.983896096211719
-3.060019122300703
-1.648359946291782
2.216767750885387
0.350373035697845
-0.011370506706071
-0.498867264445104
2.468177970851288
3.812422697808168
-2.809182354108666
0.199387564146316
2.278618859050720
0.666448655481490
-5.503325349068301
-1.642998382746132
-0.968198083533881
-0.513006724528898
2.579538812843573
4.159587185243272
1.089659311707078
2.032616944632840
2.697290749666157
-0.759166096926029
-1.068339201344370
0.631005307670754
1.472954705350404
-1.949338293419324
2.044055541133541
0.087374346799183
-0.639032074979727
2.641284779626127
0.849162399578867
-0.005434727778718
0.045753731261207
0.030672101870923
2.768894812664724
-2.760393653198491
-0.135014596001746
-3.044222282341574
2.810835201739512
-1.906365770213143
-0.728412803885686
-1.024652259243396
3.069972560595753
0.864853171102931
0.538139921272680
-0.151088814256753
2.724987542174514
-1.740561253043788
-0.254037451819194
2.293143724759883
-2.160958311849393
1.138147893570539
0.163013519710779
4.612260332467862
3.396049416917440
1.159432043552605
1.815632321307820
0.614730972512730
7.441145061552237
0.739839473705110
-2.902859769520105
-0.062077677012048
0.206118880637880
-2.081258923546113
1.659325451521528
3.871259665167170
0.045384128258074
-1.527261585492605
-0.421523242355364
1.692447609710190
0.762598067426858
-2.913518632630072
2.108278542928279
2.130614150653679
-2.672849957167134
1.254039225031433
2.412122306083270
2.009274117931432
0.012233442534432
2.650496836357544
-1.821430784080636
-3.167254970629656
2.773247681215678
0.944395890229423
2.063737606887376
-1.117979981996842
3.869084637630039
-0.566853676965813
1.912455516002013
-1.697918124507177
-1.468422415526513
-1.318701018380833
-0.097986824973286
1.332344920762345
2.440511982721470
2.372478428674292
1.544708497804009
1.491281320032017
-0.230643905812438
-0.940035795202211
0.066234545897223
1.273785016685377
-1.020667251867868
3.485390831867470
3.266312533134344
1.648591518154045
1.102012335302361
-1.710134676743413
-4.865447272819825
-1.629259318360318
-2.754416833759037
1.479148656920937
3.174380684169361
0.481354480971945
-0.947211988702161
-2.163226901628048
-1.257902050113407
1.221606650673742
-0.254871582509852
3.548794503091398
-1.959721392281720
-5.630269015811821
0.034459373416257
-2.317052619008607
0.784300255870126
0.018870600626605
2.762560016380451
-3.967814879970756
0.609384179146257
1.086155597311238
-2.907876304615888
1.815467318412507
4.130563569863564
0.093561393255567
1.777846604730856
0.085454522229857
-3.329324264680842
0.854652634391102
-1.302281690086925
-0.948596265699099
0.706816849308112
1.325594094748017
-3.550903005269718
3.026979238702986
1.175903512565574
-0.672778865151316
1.751008212665482
-2.088462346863251
-0.033439652171144
1.633332412936625
-0.822987963467122
-0.574561070523132
-1.816906341828083
0.542078203851625
-0.592698829026920
-0.369717152536625
3.473854979823296
1.076783063020532
-1.031973836031682
1.076619393276001
-3.710538942943387
-3.439402085950774
-1.029086027888525
-1.752565922532825
-0.629675243580667
2.002126790460860
1.000551925194948
-3.300670076431039
-0.266226777772403
4.144863353556876
-1.057556905116861
-5.081998590141076
-3.851862174339337
-1.914279949060571
1.981707532223969
-0.630212407748730
1.123375026242836
0.307113529139382
-0.215892087981626
3.696071917390858
-2.145964781578495
-1.912723191704388
0.213208570386936
2.717267498681201
3.181856938478964
-3.119291277922693
2.077988639174532
-0.660709401574936
0.410060296399802
-2.889064969447242
0.263887980165731
-0.702183427961484
-0.451857176735750
4.013545202160214
3.452781416315238
2.225255419592714
-1.255771475169486
-1.283885567428019
1.797423372503023
-2.698039865121525
1.047365299562962
-0.284520683336664
1.999652463009433
-1.146712208903622
0.910261296370815
-2.306534276874253
1.428496161886648
0.825083675016893
-2.192913996699413
0.899660947958730
1.498004758576247
-0.501662637173485
2.907865838299036
-0.093514433811097
-2.491158160092445
0.512146398204588
-0.695910930635275
-0.187776781695445
-1.817315765453919
2.852591593799347
-1.550990887352663
0.919994806626460
0.584975726762802
2.216027057244816
-0.843767989664629
1.907371261732974
2.892100326061533
0.576406273967966
0.165266263370226
1.897269349959740
0.753423204541562
4.716067120626855
1.173221027718363
-3.252605075557293
2.231258935474932
2.153626986681482
-1.393284529114352
-0.575585678273701
2.316875234918836
-1.316607997490279
-0.532825579567408
1.023488290509214
-1.799519392282942
0.963135732507322
0.341441693682085
3.896745534180517
1.234360122882766
-0.926462854554151
2.033955052308545
-0.768720554741802
2.288236169719012
-2.960856872303188
2.170905810961824
0.864380507481266
1.203989588444924
-0.897262762547783
1.373416527677700
-0.306304996630705
0.431971119446337
-1.576321845903880
1.205957356914666
-0.493495521838756
1.175274153569437
1.013415222320006
-2.407892219254149
-3.101322025436335
-2.621339095369733
-2.497511779558436
-2.850878756502683
-2.397447594881173
-0.904734419065551
-2.280114713684467
1.077823121194600
-0.239124026436847
1.345214907057407
-0.082240513305189
0.282159863723496
0.098339614073899
-3.011782536170105
-2.530813315496635
-1.323352157249931
-1.525821840080106
0.455288047641901
-1.834805143383267
-3.396388209054578
-0.614004328925403
-0.808981918356178
3.616305092468169
1.402948225201743
-0.227092090263369
0.717359307761652
-1.940201504026164
-4.970315074949903
0.755585408042803
-1.241305411194420
1.682146655370859
0.489175947626650
0.159937506916544
-2.235533856583548
0.205770626500052
-2.348107926882871
-1.022666207008275
-1.696559615846989
-0.919789681746376
3.120271396754882
-1.856377164122734
-2.367213287608807
1.069971580977896
-2.902143827665607
-1.618038730778164
-4.006766415300366
-0.887842682919509
-0.486898102248384
-0.364799511729991
-1.497010124480452
-0.249515390790986
-2.436077589609599
-4.891496005194221
-2.531825141728274
0.208120802113998
1.634025047222567
0.489030799374738
-2.440134490387094
-0.602594660145586
-3.450114810421709
-0.043991095093735
-0.390436514155726
-4.235344194560971
-1.778397808821419
2.148858811134785
-5.097568183158572
-2.371772920923597
-4.169845427055187
-3.093681221275419
-4.264212766186710
-0.182332319945122
-2.757583301541511
-0.652281037164057
0.448473490713453
-1.417948648279346
0.517735915194595
-1.123263614937430
-1.238267267750957
0.059878919538974
1.373075905242696
-1.233749223103954
2.784029439221337
-2.961122546062155
-4.684283660157183
0.053660564807098
-5.002327926109557
-6.118261518069592
-0.610946312649137
-0.021948361016191
-1.052769599579233
-0.900378350406836
0.764081200527344
-1.065766150777399
0.159792131040204
-0.882892828571321
-0.981563702279579
3.522549056156000
3.811684294923223
0.439680873929787
1.700245036885041
2.644087175840965
-3.008331945805750
-4.652365329027616
2.583922619937790
0.326574507759604
-2.624338894560146
1.662064088790753
1.764852633490121
4.104167181699953
-0.095207914112172
-0.061892721805340
-1.905832073636476
-4.784631058440518
-1.019973018368352
2.687236416487225
-1.739419833612362
0.896149740802581
-2.524683534790560
3.345873800377774
3.008961997455269
-1.267057488810888
-1.653294468828396
2.395074799389109
2.591272907340146
2.287381968385807
0.512657148414439
1.080842898506941
1.387442177677315
-0.414289681693984
4.348604147093369
-1.436626409123547
-1.055056597838290
0.470065850254411
0.562891445484375
-1.779313130806875
-2.182329932509972
-1.108902999596665
-0.394189611883747
0.280291029043683
-2.290803876957276
-1.122692792823946
-0.678071420659889
-1.881618707033317
2.219853245086272
1.239256834651351
-0.512133392454449
3.335081097022386
2.458843744176401
-0.160278233318544
2.145502598510183
-0.372523585867521
-0.911789398499372
-1.684265226101581
2.662309106509421
3.053507111450442
2.081627896324667
-0.366153433301072
2.581018733732309
-0.355404045550927
0.250224168508813
-0.264755060701427
-1.099233158854442
0.304515965276422
0.238573305092665
-2.338597760636029
-0.026982491703485
4.924221663592306
0.609034495743254
2.524381753911634
0.144668770238091
-1.226684683905080
-0.893925041880794
-3.346711514891688
-2.079579112284349
1.122865118269654
0.573965589600234
-0.940283326124381
4.936854680088970
2.893825280965938
-0.697684299135172
-0.936286972027151
0.666144974294816
-1.751997671551693
1.471690423545290
-0.233628469473924
0.267350799257207
-3.120918562133239
-0.433858511818588
-0.092144690462782
-3.486459362376983
-3.185444835934604
-2.999083184121274
0.696298564047513
0.662373402246680
-4.341667979360460
-0.523147626096348
-4.012503913182175
-0.719547371090555
0.040532633912605
-4.688051623389455
1.917554823584536
-0.868480599625716
-3.132482508585790
4.162154114905492
3.138821078552612
0.086972263359133
-1.057120296606447
1.343593940541595
1.142725470333177
-5.456480154610872
-2.417001936584982
-3.450651978666188
-1.579816131789981
1.699293603073375
-3.493278457416034
-1.349208742249324
0.913956293187251
-6.417922516083899
2.601858604365595
-4.538080773330536
-0.539976701659618
-0.749313358088950
0.034177442288944
1.163791722445898
-3.275012220352164
2.324974763418105
-0.162671754397040
0.298691517588603
-2.392984723365369
-0.073775003746998
0.758967018646945
0.321616927589079
1.096576391186343
-2.261321355762317
-4.277308807882097
0.087744227749722
-1.915117706461786
0.139047158837417
1.128031834270666
-2.445249535906061
-3.091014442914466
-1.396168521351496
-1.169960524715598
0.169290886792536
0.093368616659175
2.740944030786858
0.452026456411932
2.265679810958639
0.299434650021272
-1.743908724317242
2.327604908491328
-0.515511210891735
-2.177969364312625
1.987321889676917
2.263586753075444
2.025576114208571
-0.349692990518154
1.223655928308442
-0.357321051458158
1.480045777621958
0.372457302008657
2.691439541585203
0.954306585109597
0.414461821261459
1.810870714732568
-1.143984642463749
1.023500286669354
-0.864353488860531
0.443633524664924
3.698788138861606
2.017004290508277
0.681961976935986
2.374838082867852
2.186231411625570
0.811438116215865
-0.884918996765534
5.240117228659678
1.762009064282015
4.964707219763072
1.584864865887240
4.157738518592129
2.879307897399474
1.678220156722052
-1.506753574684861
0.217633715772124
0.991283665293570
3.654686593116543
3.508546675288907
2.227559962958189
1.517450591987673
2.689093895496210
0.561302763981572
3.693313779285913
0.177528905548074
-1.346868789918332
1.333760832289552
-1.418290156789787
2.170905706855762
4.035828294990443
-1.299355556445931
-1.885883180500466
0.967081567294771
1.258404488193597
3.730426237689371
2.011078957135941
2.194291892659895
-0.245569158502208
1.242371585253914
3.361077618703313
2.600749918726739
0.647841287573130
0.493052486717309
5.899810667723419
1.818029244470868
-0.228768626745509
0.110059428006588
1.271601440479508
3.619869376632755
0.294681124248695
1.131375852779107
4.160749805772554
2.878056698182778
-0.270475771771647
-1.224824470630198
3.065994266021447
0.489114658851820
0.270346934341070
-2.298585279100768
-4.904682434240946
-1.403529046268714
3.151494820082741
-0.720329228007190
-1.487245831710584
-0.529178023173900
1.532579655467976
-1.465880909462335
-4.731780179983695
-1.452746355805615
2.182069325356326
2.581496334545824
2.182898993374361
0.765189903369148
0.147772115203099
-2.384105926870885
1.130372578235540
-1.860418393254678
0.580108459894237
-3.141392754223822
-0.677127546224166
2.037510664296121
-1.126479539745248
0.273315832210396
-0.708356679518163
-1.445470797713834
-0.123180510308324
-1.666033763121544
0.455929525542809
-2.115457906337035
-2.350534148934388
-1.624013356547465
1.166772333587317
0.170088637974607
1.000297626045759
3.502802922579932
-1.578344494406851
-1.970161055071122
0.819576403516852
-1.268266885582818
0.268583223764889
0.551586493775348
0.724861283708951
-1.185228274199949
2.967422488967124
-1.224758037120063
-3.962286199807441
-2.211883886208986
0.629838038232861
1.854415564907195
-1.660396217317747
2.512787616092711
-0.653888451229305
-1.987787070859028
1.118965765302538
-1.615028640857296
-3.324798040584539
-6.701689875513168
0.596876940441632
0.219551266257484
-2.825408628580703
-3.233585403714264
-5.272966528151976
-2.474237182931506
-1.935513136758311
1.067057662749529
-1.061919824723721
3.466049273352223
-2.041998875812776
-2.904015855151251
-1.167644749858713
-0.262820283455975
-0.274969151500804
-0.243378597332471
0.309101929063006
0.632558360304232
-1.161043230061013
-2.620001798522231
-0.254455897622762
1.866331728690202
3.945515926851297
-0.647207053432738
-3.054646902938081
-3.532870280135453
-1.686490755666195
-2.833260499760996
-0.890493265614318
-2.924430859194280
0.679329043510352
3.128956239490697
2.307276574488410
0.215310459757715
0.709714639030114
-0.493328426828185
-2.228288499921730
-2.501112556165681
-1.308884714814257
0.536763353054128
-3.381602923181800
-0.663007816215011
0.523675644516287
0.977558770419366
1.405999593233580
4.489652721091344
-0.951965025580655
1.343642643927330
-2.974520377848915
2.140857963851153
-0.749015852587504
1.833511255246717
5.807334623983672
-1.344064743616289
-0.352642754022720
3.856979662096990
3.196037754796349
1.226357729043424
-0.484099044286626
-1.218062297704468
-1.675490078792617
-1.283986108925512
0.921191535560278
0.931450025812145
3.686225137723540
0.450554632335463
1.409058250374418
-1.042496043880264
0.658404969365738
-2.160997877529221
1.758603046555789
-2.644302877250402
0.543972448776552
2.343281984330072
1.050808191901853
1.433889809621753
-0.737005071131509
-5.171267694963353
-0.769400251871989
0.965590335865268
-2.923900880288736
-1.508757824726967
3.407571068661768
-0.136655789372295
0.200239346038239
-2.977549948648415
-0.090044601485694
1.875001249646131
-3.586424801190486
-0.874568604480294
-0.739940337810236
0.622989304127310
2.519145937120669
3.221485113758014
0.805189046120488
2.822276240416404
-1.534493897756116
-0.850729511585543
-2.631577611899459
4.064559042171710
-4.176646012016958
0.454187305243920
-1.277339210011456
0.351200254804442
-3.745914817701862
-4.189480870644267
-0.046107917526717
3.254620602578516
0.248958714332433
0.510491532059085
-2.249828129978869
-0.157416498570236
-2.097788730754277
-2.250428217009330
-2.734525674375192
-1.651937681782853
0.735422722360850
3.440598178027237
-0.498191126565465
-1.394161224616424
-3.944222571232463
0.480022417774834
0.025326209384495
-2.939695987300250
0.489342026768513
1.423949716788551
-2.244713511427173
-1.323953888306666
1.691789537035838
-1.849944465042692
-0.200909031207975
-2.153128539161590
-1.373591854544755
-5.445012607184415
-3.474734405613758
-1.509209318934429
-2.889185964120408
-5.218669125774394
-0.216847574636623
-2.400471807312738
0.056219416424212
-3.409853342709778
-5.925546775069599
1.570698448182031
-2.268827487642515
-1.570504001346638
-2.786582243357546
-2.166234740802108
1.317563077416665
0.773125095753089
-2.841080949286332
-0.449422247319886
-2.166046065501448
-1.922588282465459
-2.323129370976441
-2.368393501826269
2.171262241420527
-1.611703154261505
0.265159528565950
-0.835627590814348
0.053277263829560
-0.991765049657387
-1.956940274421248
-1.345845895865586
3.110402100281178
-0.745014860315451
-2.336659224280530
-1.632739371843473
2.570325308868851
-3.330887908064956
-1.205289656102446
-2.431569950189518
-4.035721536267839
0.526736755459223
0.513702684923692
0.819146684396066
1.007646071917714
-1.587395217357624
0.122779181579845
-3.417921446789704
-4.805422056480096
-0.776779707224044
2.603447766723355
-3.246616494669985
-1.249768327924420
3.046655026496811
4.058124331217352
2.913786173075633
1.256128134948729
-0.908569250910265
1.220970985659184
-1.145091086919862
2.323140949233952
0.555706992735509
-1.659310432867153
0.464096987591159
2.076256148057915
3.518708580831131
-2.462700056170960
-1.069155420125151
1.145557907006734
2.132000949933543
1.115701798771710
-0.133089114761393
7.968872460358778
-2.788036519979885
4.192135942830343
0.467198129429497
-1.641397426011686
0.060207444847385
3.054094745985630
2.709486995538119
-2.911105104732069
2.636391466605036
1.900236215216581
3.181575258934835
4.477211521352194
-3.745198881794472
3.751905723542366
-0.242297127069901
-0.286392428843539
-0.510472997201813
1.707775067193496
0.590688660936043
2.051743114430790
-0.224191984556827
4.703417211177372
1.712579535208824
-0.865274260752364
1.814483349496969
1.177661221067166
3.575491289411073
0.063188302969252
3.288159094491825
2.445837680126778
5.017591791572786
1.315540577180533
4.185577812638634
1.023006425567315
3.244381014390070
-1.049190044176143
0.515444503886098
1.518716588331817
2.643031287641202
-0.238603416172141
0.490316600277975
-0.962731798447665
6.766261983043886
-0.158284684008006
0.944763433893739
-2.134366810026214
-0.834607808469325
1.391994182988435
-0.384863289674500
1.899961848896973
3.421036141523235
0.399992971997208
3.477731146246321
3.465110197235990
4.669124086886487
2.327557728093690
1.169247549360745
5.030558522025683
2.454023181429689
0.825180865175410
0.100958201771726
0.488162917550846
0.385490039642815
-0.720174661721756
0.760616365468726
1.985157146948160
0.551005816253144
-1.345344614724090
-0.533070603900709
1.663932189483976
2.133801888382735
2.101275068934235
-1.071356242301476
-0.477142243866342
-2.029268529191010
-0.334687099753782
-1.670521797266267
-1.964788079929744
1.808470687052501
-3.670600220700858
-0.268778445853631
1.502796688922812
0.190651045298300
0.620993437891022
0.818258426614310
6.149767521091896
-1.146769404709346
1.238899927373775
-2.319089456646404
1.986726317229539
1.436790347039737
1.933337679146263
-0.884095294675943
-0.960438954094958
1.646813903647365
0.857920884498910
2.938747043810668
1.480253319462156
5.077897153508168
2.740867648678090
-2.937897925606553
-3.251356709646323
-1.234897527520573
-2.862840378047351
-0.869113086267581
1.992342442523588
2.130318541411295
-1.653889111209482
2.329549976480882
0.831584696888885
-0.628894851951014
1.267482543337495
2.397167014651805
-0.989615238033031
-0.407602990466399
-0.008743166818023
-1.088397897404764
0.608098374402496
0.647261292623654
2.203579552113478
-0.155795652700473
-1.851631866773649
-0.481062455733370
-0.505770356730287
-1.174888191895770
4.903895022458890
